…
##       n
## 1 12461
## [1] "Total frequency in the filtered dataset:"
##   TotalAbundance
## 1       12911847
## [1] "Summary statistics (min, median, max, quartiles) of the filtered dataset:"
##  FrequencyPerSample
##  Min.   : 21302    
##  1st Qu.: 58453    
##  Median : 88959    
##  Mean   :130423    
##  3rd Qu.:154575    
##  Max.   :416947    
## [1] "Sanity check: is total relative abundance of each sample 100%?"
## # A tibble: 99 × 4
##    Sample sumRelativeAbundance diff_from_100 is_different
##    <chr>                 <dbl>         <dbl> <lgl>       
##  1 2D10                    100             0 FALSE       
##  2 2D14                    100             0 FALSE       
##  3 CG33                    100             0 FALSE       
##  4 D27                     100             0 FALSE       
##  5 DCG6                    100             0 FALSE       
##  6 F198                    100             0 FALSE       
##  7 F200                    100             0 FALSE       
##  8 F201                    100             0 FALSE       
##  9 F202                    100             0 FALSE       
## 10 F212                    100             0 FALSE       
## # ℹ 89 more rows
```
…
##    n
## 1 25
## [1] "Total frequency in the filtered dataset:"
##   TotalAbundance
## 1       12911847
## [1] "Summary statistics (min, median, max, quartiles) of the filtered dataset:"
##  FrequencyPerSample
##  Min.   : 21302    
##  1st Qu.: 58453    
##  Median : 88959    
##  Mean   :130423    
##  3rd Qu.:154575    
##  Max.   :416947    
## [1] "Sanity check: is total relative abundance of each sample 100%?"
## # A tibble: 99 × 4
##    Sample sumRelativeAbundance diff_from_100 is_different
##    <chr>                 <dbl>         <dbl> <lgl>       
##  1 F229                    100      1.42e-14 FALSE       
##  2 F514                    100      1.42e-14 FALSE       
##  3 F566                    100      1.42e-14 FALSE       
##  4 H15                     100      1.42e-14 FALSE       
##  5 MF_143                  100      1.42e-14 FALSE       
##  6 MF_144                  100      1.42e-14 FALSE       
##  7 PVO_17                  100      1.42e-14 FALSE       
##  8 R10                     100      1.42e-14 FALSE       
##  9 S15                     100      1.42e-14 FALSE       
## 10 2D10                    100      0        FALSE       
## # ℹ 89 more rows
```
…
##     n
## 1 222
## [1] "Total frequency in the filtered dataset:"
##   TotalAbundance
## 1       12911847
## [1] "Summary statistics (min, median, max, quartiles) of the filtered dataset:"
##  FrequencyPerSample
##  Min.   : 21302    
##  1st Qu.: 58453    
##  Median : 88959    
##  Mean   :130423    
##  3rd Qu.:154575    
##  Max.   :416947    
## [1] "Sanity check: is total relative abundance of each sample 100%?"
## # A tibble: 99 × 4
##    Sample sumRelativeAbundance diff_from_100 is_different
##    <chr>                 <dbl>         <dbl> <lgl>       
##  1 S11                     100      1.42e-14 FALSE       
##  2 2D10                    100      0        FALSE       
##  3 2D14                    100      0        FALSE       
##  4 CG33                    100      0        FALSE       
##  5 D27                     100      0        FALSE       
##  6 DCG6                    100      0        FALSE       
##  7 F198                    100      0        FALSE       
##  8 F200                    100      0        FALSE       
##  9 F201                    100      0        FALSE       
## 10 F202                    100      0        FALSE       
## # ℹ 89 more rows
```
…
##     n
## 1 524
## [1] "Total frequency in the filtered dataset:"
##   TotalAbundance
## 1       12911847
## [1] "Summary statistics (min, median, max, quartiles) of the filtered dataset:"
##  FrequencyPerSample
##  Min.   : 21302    
##  1st Qu.: 58453    
##  Median : 88959    
##  Mean   :130423    
##  3rd Qu.:154575    
##  Max.   :416947    
## [1] "Sanity check: is total relative abundance of each sample 100%?"
## # A tibble: 99 × 4
##    Sample sumRelativeAbundance diff_from_100 is_different
##    <chr>                 <dbl>         <dbl> <lgl>       
##  1 2D10                    100             0 FALSE       
##  2 2D14                    100             0 FALSE       
##  3 CG33                    100             0 FALSE       
##  4 D27                     100             0 FALSE       
##  5 DCG6                    100             0 FALSE       
##  6 F198                    100             0 FALSE       
##  7 F200                    100             0 FALSE       
##  8 F201                    100             0 FALSE       
##  9 F202                    100             0 FALSE       
## 10 F212                    100             0 FALSE       
## # ℹ 89 more rows
```
…
