…
### Dominant families (Results).


``` r
get_dominant_taxa_in_host(ps.q.agg.family,
                          tax.rank = "Family",
                          host = "pvo",
                          nonbacterial.table = F)
```

```
## # A tibble: 96 × 3
## # Groups:   Family [96]
##    Phylum           Family                                MeanRelativeAbundance
##    <chr>            <chr>                                                 <dbl>
##  1 Firmicutes       Lachnospiraceae                                       36.6 
##  2 Bacteroidota     Muribaculaceae                                        15.3 
##  3 Firmicutes       Ruminococcaceae                                        9.22
##  4 Firmicutes       Clostridia_UCG-014                                     7.57
##  5 Firmicutes       Oscillospiraceae                                       7.12
##  6 Bacteria Kingdom Bacteria Kingdom                                       6.05
##  7 Actinobacteriota Eggerthellaceae                                        2.12
##  8 Bacteroidota     Rikenellaceae                                          1.60
##  9 Firmicutes       Clostridia_vadinBB60_group                             1.60
## 10 Firmicutes       [Eubacterium]_coprostanoligenes_group                  1.01
## # ℹ 86 more rows
```
…
```
## `summarise()` has grouped output by 'class'. You can override using the
## `.groups` argument.
```

```
## # A tibble: 22 × 5
## # Groups:   class [2]
##    class  Phylum MeanRelativeAbundance MinRelativeAbundance MaxRelativeAbundance
##    <chr>  <chr>                  <dbl>                <dbl>                <dbl>
##  1 rabbit Firmi…                 82.7               64.9                   95.5 
##  2 hare   Firmi…                 62.3               49.0                   69.1 
##  3 hare   Bacte…                 31.0               22.4                   44.5 
##  4 rabbit Bacte…                  6.03               1.15                  18.6 
##  5 rabbit Verru…                  4.85               0.0343                21.3 
##  6 rabbit Cyano…                  2.33               0.0806                 8.11
##  7 rabbit Actin…                  1.83               0.528                  4.18
##  8 hare   Lenti…                  1.61               0.309                  3.45
##  9 hare   Prote…                  1.35               0.886                  2.29
## 10 rabbit Tener…                  1.32               0.259                  3.01
## # ℹ 12 more rows
```
Phyla in my dataset.


``` r
get_dominant_taxa_in_host(ps.q.agg.phylum,tax.rank = "Phylum",
                          host = c("hare","rabbit"),
                          nonbacterial.table = F)
```

```
## Adding missing grouping variables: `class`
```

```
## # A tibble: 27 × 3
## # Groups:   class, Phylum [27]
##    class  Phylum            MeanRelativeAbundance
##    <fct>  <chr>                             <dbl>
##  1 rabbit Firmicutes                       84.0  
##  2 hare   Firmicutes                       60.6  
##  3 hare   Bacteroidota                     32.9  
##  4 rabbit Bacteroidota                      7.15 
##  5 rabbit Verrucomicrobiota                 5.05 
##  6 rabbit Actinobacteriota                  2.03 
##  7 hare   Verrucomicrobiota                 1.36 
##  8 hare   Actinobacteriota                  1.18 
##  9 hare   Patescibacteria                   1.01 
## 10 hare   Synergistota                      0.967
## # ℹ 17 more rows
```
…
``` r
get_dominant_taxa_in_host(ps.q.agg.family,
                          tax.rank = "Family",
                          host = c("hare","rabbit"),
                          nonbacterial.table = F)
```

```
## Adding missing grouping variables: `class`
```

```
## # A tibble: 188 × 4
## # Groups:   class, Family [188]
##    class  Phylum       Family                MeanRelativeAbundance
##    <fct>  <chr>        <chr>                                 <dbl>
##  1 rabbit Firmicutes   Clostridiaceae                        22.9 
##  2 hare   Firmicutes   Lachnospiraceae                       17.3 
##  3 hare   Firmicutes   Ruminococcaceae                       17.3 
##  4 rabbit Firmicutes   Ruminococcaceae                       16.5 
##  5 rabbit Firmicutes   Oscillospiraceae                       9.93
##  6 hare   Bacteroidota Bacteroidaceae                         9.72
##  7 hare   Bacteroidota Bacteroidales Order                    9.52
##  8 hare   Firmicutes   Christensenellaceae                    8.54
##  9 hare   Bacteroidota Rikenellaceae                          5.99
## 10 rabbit Firmicutes   Peptostreptococcaceae                  5.44
## # ℹ 178 more rows
```
…
