…
```
## # A tibble: 39 × 2
##    Taxon                             n
##    <chr>                         <int>
##  1 Muribaculaceae                    2
##  2 Bacteria Kingdom                  1
##  3 Bacteroidales Order               1
##  4 Bacteroides                       1
##  5 Bacteroidia Class                 1
##  6 Barnesiellaceae Family            1
##  7 Burkholderiales Order             1
##  8 Butyricimonas                     1
##  9 Christensenellaceae_R-7_group     1
## 10 Clostridia Class                  1
## # ℹ 29 more rows
```
…
