005-pca.knit
…
## Joining with `by = join_by(Genus)`

# write.table(ps.q.agg.pc_loadings,
#             file=file.path(rtables.directory,
#                            paste(paste(format(Sys.time(),format="%Y%m%d"),
#                                        format(Sys.time(),format = "%H_%M_%S"),sep = "_"),
#                                  "pca-loadings-mean_relative_abundance.tsv",sep="-")),
#             row.names = F,sep = "\t")
ps.q.agg.pc_loadings

## # A tibble: 60 × 5
##    class Genus                      MeanRelativeAbundance sdRelativeAbundance PC_num     
##    <fct> <chr>                                      <dbl>               <dbl> <chr>      
##  1 DMR   Prevotella                                 14.2                 8.60 PC1_and_PC2
##  2 DMR   Prevotellaceae Family                       9.26                4.94 PC1        
##  3 DMR   Bacteroidia Class                           4.99                5.63 PC2        
##  4 DMR   Rikenellaceae Family                        4.28                5.95 PC2        
##  5 NMR   Fibrobacter                                 5.71                5.00 PC1        
##  6 DMR   Gastranaerophilales                         2.48                1.34 PC2        
##  7 NMR   Erysipelotrichaceae Family                  5.53                4.57 PC1        
##  8 NMR   p-251-o5                                    6.32                3.73 PC1        
##  9 NMR   Prevotellaceae_UCG-003                      5.48                2.65 PC1        
## 10 NMR   Prevotellaceae_UCG-001                      4.63                2.86 PC2        
## # ℹ 50 more rows
…
